…
Generate a synthetic proteomic dataset with the correct format:

``` r
library(ProteoBayes)
set.seed(42)

## Generate a dataset without imputations
data = simu_db()

## Generate a dataset with multiple imputations
data_imp = simu_db(multi_imp = TRUE)

data
#> # A tibble: 50 x 4
#>    Peptide   Group Sample Output
#>    <chr>     <int>  <int>  <dbl>
#>  1 Peptide_1     1      1   48.8
#>  2 Peptide_1     1      2   46.5
#>  3 Peptide_1     1      3   49.8
#>  4 Peptide_1     1      4   49.9
#>  5 Peptide_1     1      5   47.4
#>  6 Peptide_1     2      1   54.9
#>  7 Peptide_1     2      2   49.4
#>  8 Peptide_1     2      3   52.0
#>  9 Peptide_1     2      4   49.6
#> 10 Peptide_1     2      5   55.0
#> # i 40 more rows
data_imp
#> # A tibble: 250 x 5
#>    Peptide   Group Sample Output  Draw
#>    <chr>     <int>  <int>  <dbl> <int>
#>  1 Peptide_1     1      1   51.8     1
#>  2 Peptide_1     1      1   51.3     2
#>  3 Peptide_1     1      1   51.6     3
#>  4 Peptide_1     1      1   51.9     4
#>  5 Peptide_1     1      1   51.8     5
#>  6 Peptide_1     1      2   52.5     1
#>  7 Peptide_1     1      2   52.6     2
#>  8 Peptide_1     1      2   52.0     3
#>  9 Peptide_1     1      2   52.0     4
#> 10 Peptide_1     1      2   50.8     5
#> # i 240 more rows
```
…
